<?xml version="1.0" encoding="UTF-8" standalone="no"?>
<svg
   xmlns:dc="http://purl.org/dc/elements/1.1/"
   xmlns:cc="http://creativecommons.org/ns#"
   xmlns:rdf="http://www.w3.org/1999/02/22-rdf-syntax-ns#"
   xmlns:svg="http://www.w3.org/2000/svg"
   xmlns="http://www.w3.org/2000/svg"
   xmlns:sodipodi="http://sodipodi.sourceforge.net/DTD/sodipodi-0.dtd"
   xmlns:inkscape="http://www.inkscape.org/namespaces/inkscape"
   id="svg8"
   version="1.1"
   viewBox="0 0 43.829886 10.054167"
   height="38"
   width="165.65627"
   sodipodi:docname="raw-logo-black.svg"
   inkscape:version="0.92.2 2405546, 2018-03-11">
  <sodipodi:namedview
     pagecolor="#ffffff"
     bordercolor="#666666"
     borderopacity="1"
     objecttolerance="10"
     gridtolerance="10"
     guidetolerance="10"
     inkscape:pageopacity="0"
     inkscape:pageshadow="2"
     inkscape:window-width="1858"
     inkscape:window-height="998"
     id="namedview97"
     showgrid="false"
     fit-margin-top="0"
     fit-margin-left="0"
     fit-margin-right="0"
     fit-margin-bottom="0"
     inkscape:zoom="2.0432219"
     inkscape:cx="248.73868"
     inkscape:cy="123.99108"
     inkscape:window-x="29"
     inkscape:window-y="49"
     inkscape:window-maximized="0"
     inkscape:current-layer="svg8" />
  <defs
     id="defs2" />
  <metadata
     id="metadata5">
    <rdf:RDF>
      <cc:Work
         rdf:about="">
        <dc:format>image/svg+xml</dc:format>
        <dc:type
           rdf:resource="http://purl.org/dc/dcmitype/StillImage" />
        <dc:title></dc:title>
      </cc:Work>
    </rdf:RDF>
  </metadata>
  <g
     id="g264"
     transform="translate(11.64168,20.172476)">
    <path
       inkscape:connector-curvature="0"
       id="path199"
       d="m 19.543494,-20.102709 v 0.603064 c 0.017,-0.03641 0.03605,-0.07239 0.06511,-0.105936 0.07001,-0.08086 0.160745,-0.150765 0.272333,-0.209807 0.113776,-0.05775 0.241737,-0.103052 0.383956,-0.136424 0.144409,-0.03209 0.290983,-0.04858 0.439766,-0.04858 0.142222,0 0.282287,0.01492 0.420129,0.04444 0.140034,0.03081 0.26474,0.07504 0.37414,0.132811 0.1094,0.05775 0.198305,0.128444 0.266134,0.211873 0.02907,0.03575 0.0485,0.07472 0.06511,0.11472 v -0.606165 z m 1.14825,0.37207 c -0.102833,0 -0.202417,0.0097 -0.298689,0.02894 -0.09408,0.01925 -0.177395,0.04596 -0.249597,0.08062 -0.07221,0.03594 -0.129873,0.07835 -0.173633,0.127124 -0.04376,0.05005 -0.06563,0.104773 -0.06563,0.163814 0,0.03081 0.0065,0.06275 0.01964,0.09612 0.01313,0.03337 0.03357,0.06505 0.06201,0.09457 0.02845,0.03081 0.06476,0.05908 0.108519,0.08475 0.04595,0.02567 0.10088,0.04609 0.164332,0.0615 l -0.213423,0.217558 c -0.08752,-0.02182 -0.165235,-0.0535 -0.233061,-0.09457 -0.06564,-0.03979 -0.121484,-0.08508 -0.167434,-0.136426 -0.04409,-0.04803 -0.07734,-0.0999 -0.101285,-0.155028 v 0.967898 c 0.01598,-0.03756 0.03452,-0.07463 0.06201,-0.109037 0.06783,-0.08086 0.156215,-0.150766 0.265615,-0.209806 0.111588,-0.05775 0.238636,-0.102786 0.380858,-0.134876 0.142218,-0.03209 0.287882,-0.04806 0.436665,-0.04806 0.155348,0 0.303747,0.01675 0.445966,0.05013 0.142222,0.03465 0.268356,0.08152 0.377756,0.14056 0.1094,0.06033 0.195448,0.131801 0.258898,0.213941 0.02619,0.03278 0.04317,0.06729 0.05891,0.102319 v -0.960149 c -0.02352,0.05342 -0.05847,0.10282 -0.104902,0.147795 -0.0941,0.09241 -0.216451,0.161268 -0.367422,0.206189 l -0.23926,-0.204122 c 0.06564,-0.01797 0.120055,-0.03995 0.163814,-0.06563 0.04594,-0.02567 0.08226,-0.05316 0.108519,-0.08268 0.02625,-0.02952 0.04487,-0.06041 0.05581,-0.0925 0.01313,-0.03209 0.01964,-0.06376 0.01964,-0.09457 0,-0.06674 -0.0233,-0.125127 -0.06925,-0.175183 -0.04595,-0.04877 -0.105958,-0.08962 -0.180351,-0.122989 -0.0722,-0.03209 -0.155514,-0.05669 -0.249597,-0.07338 -0.09189,-0.01668 -0.18352,-0.02481 -0.275436,-0.02481 z m -0.0031,1.304831 c -0.100647,0 -0.198406,0.0089 -0.292489,0.02687 -0.09409,0.01797 -0.176876,0.04362 -0.249081,0.077 -0.07221,0.03465 -0.130389,0.07628 -0.174149,0.125057 -0.04376,0.05005 -0.06563,0.106606 -0.06563,0.169498 0,0.06417 0.02187,0.120726 0.06563,0.169499 0.04594,0.05005 0.105958,0.09168 0.180351,0.125057 0.07439,0.03465 0.157699,0.06031 0.249597,0.077 0.09408,0.01797 0.189497,0.02687 0.285771,0.02687 0.100648,0 0.197887,-0.0097 0.291971,-0.02894 0.09408,-0.01797 0.176876,-0.04389 0.249081,-0.07855 0.0722,-0.03337 0.129477,-0.07552 0.171048,-0.125574 0.04376,-0.04877 0.06563,-0.103759 0.06563,-0.165365 0,-0.06417 -0.0233,-0.12151 -0.06925,-0.171565 -0.04376,-0.05005 -0.102857,-0.09169 -0.17725,-0.125057 -0.0722,-0.03337 -0.154995,-0.05903 -0.249081,-0.077 -0.0919,-0.01669 -0.18588,-0.02481 -0.282152,-0.02481 z m -1.145151,0.558622 v 0.709518 h 2.286683 v -0.7028 c -0.017,0.03666 -0.03605,0.07289 -0.06511,0.106454 -0.06783,0.08214 -0.157647,0.152049 -0.269235,0.209806 -0.111588,0.05775 -0.238636,0.102786 -0.380857,0.134876 -0.142219,0.03209 -0.286451,0.04806 -0.433047,0.04806 -0.155347,0 -0.304265,-0.01675 -0.446484,-0.05013 -0.140033,-0.03337 -0.264739,-0.07946 -0.374139,-0.138492 -0.107212,-0.05904 -0.193776,-0.129732 -0.259416,-0.211874 -0.02599,-0.03364 -0.04305,-0.06941 -0.05839,-0.10542 z m 0,0.975651 v 0.533301 l 0.760677,-0.271818 v -0.261483 z m 1.158068,0 v 0.332797 c 0,0.02439 0.0098,0.04665 0.02946,0.06718 0.01969,0.02182 0.04625,0.04093 0.07907,0.05633 0.03501,0.0154 0.07548,0.02719 0.121441,0.03617 0.04594,0.009 0.09476,0.01344 0.147277,0.01344 0.0547,0 0.104947,-0.0047 0.150895,-0.01499 0.04594,-0.01027 0.08552,-0.0244 0.118338,-0.04237 0.03501,-0.01669 0.06156,-0.03684 0.07906,-0.05995 0.01969,-0.02182 0.02946,-0.04408 0.02946,-0.06718 v -0.321428 z m 1.128615,0.438733 c -0.01132,0.02519 -0.02523,0.05019 -0.04548,0.07338 -0.04376,0.05391 -0.102857,0.09999 -0.177249,0.138493 -0.0722,0.03851 -0.155515,0.06861 -0.249598,0.09043 -0.09189,0.02182 -0.184967,0.03256 -0.279051,0.03256 -0.150973,0 -0.288697,-0.02226 -0.413411,-0.06718 -0.122529,-0.04364 -0.210918,-0.103594 -0.265618,-0.179317 l -0.856279,0.304891 v 0.495577 h 0.800468 l 1.486215,-0.487309 z m 0,0.689881 -1.099159,0.329695 1.099159,0.33538 z m -2.286683,0.462504 v 0.965832 c 0.01472,-0.0336 0.0307,-0.06675 0.0553,-0.0987 0.06126,-0.07829 0.145487,-0.147149 0.252696,-0.206189 0.107212,-0.05775 0.232831,-0.103836 0.377238,-0.138493 0.146605,-0.03337 0.304366,-0.05013 0.472839,-0.05013 0.159724,0 0.309555,0.01675 0.449586,0.05013 0.142221,0.03465 0.266014,0.08152 0.371038,0.14056 0.107212,0.06033 0.191426,0.131019 0.252698,0.211874 0.0246,0.03135 0.04023,0.06471 0.05529,0.09819 v -0.484208 l -1.492933,-0.488859 z m 1.145151,0.740006 c -0.1094,0 -0.212238,0.01047 -0.308509,0.03101 -0.09408,0.02053 -0.176483,0.04881 -0.246497,0.08475 -0.07002,0.03594 -0.125859,0.07784 -0.167431,0.126607 -0.03938,0.05005 -0.05891,0.103989 -0.05891,0.161747 0,0.132198 0.106093,0.25159 0.318328,0.358118 h 0.16433 v -0.274919 H 20.7212 v 0.494544 h -1.177706 v 0.195853 h 0.45217 v 0.211357 h -0.45217 v 0.251664 h 2.286683 v -1.054199 c -0.02289,0.05109 -0.05497,0.09822 -0.09818,0.141077 -0.0919,0.09241 -0.215175,0.162051 -0.37052,0.208255 l -0.249598,-0.198437 c 0.115962,-0.03465 0.204351,-0.08335 0.265616,-0.146244 0.06126,-0.06161 0.09199,-0.128897 0.09199,-0.202055 0,-0.05776 -0.02096,-0.111428 -0.06253,-0.160197 -0.04157,-0.04749 -0.09833,-0.08834 -0.170532,-0.12299 -0.07221,-0.03337 -0.155514,-0.05982 -0.249598,-0.07906 -0.09408,-0.01797 -0.193151,-0.02687 -0.298172,-0.02687 z m -1.145151,0.522966 v 0.239262 h 0.242364 c -0.122447,-0.07183 -0.200533,-0.151857 -0.242364,-0.239262 z m 0,1.383378 v 0.849044 h 1.522389 l -1.148767,-0.352434 v -0.144177 l 1.148768,-0.352433 z m 2.286683,0.02635 -1.302764,0.397392 1.302764,0.400492 z m -2.286683,1.088306 v 0.285254 h 2.286683 v -0.285254 z m 0.376722,0.55087 v 0.68368 h -0.376722 v 0.102836 h 2.286683 v -0.11989 h -0.373621 v -0.666626 H 20.89535 v 0.575676 h -0.367938 v -0.575676 z"
       style="font-style:normal;font-variant:normal;font-weight:800;font-stretch:normal;font-size:medium;line-height:1.25;font-family:Raleway;-inkscape-font-specification:'Raleway Ultra-Bold';letter-spacing:0px;word-spacing:0px;fill:#000000;fill-opacity:1;stroke:none;stroke-width:0.34861881" />
    <path
       d="m -3.8326163,-10.201982 v -5.926519 l -2.1474919,4.308928 h -1.2271383 l -2.1474919,-4.308928 v 5.926519 h -2.2869396 v -9.900774 h 2.4821662 l 2.5658345,5.173503 2.5797792,-5.173503 h 2.4682212 v 9.900774 z"
       style="font-style:normal;font-variant:normal;font-weight:800;font-stretch:normal;font-size:medium;line-height:1.25;font-family:Raleway;-inkscape-font-specification:'Raleway Ultra-Bold';letter-spacing:0px;word-spacing:0px;fill:#000000;fill-opacity:1;stroke:none;stroke-width:0.34861881"
       id="path174"
       inkscape:connector-curvature="0" />
    <path
       d="m 3.0334317,-20.102756 h 2.0638234 l 3.611691,9.900774 H 6.3662276 L 5.5992662,-12.419197 H 2.5174759 l -0.7530167,2.217215 h -2.34271841 z m 2.1893262,6.107802 -1.1574145,-3.500133 -1.1853039,3.500133 z"
       style="font-style:normal;font-variant:normal;font-weight:800;font-stretch:normal;font-size:medium;line-height:1.25;font-family:Raleway;-inkscape-font-specification:'Raleway Ultra-Bold';letter-spacing:0px;word-spacing:0px;fill:#000000;fill-opacity:1;stroke:none;stroke-width:0.34861881"
       id="path176"
       inkscape:connector-curvature="0" />
    <path
       d="m 16.134963,-11.178114 q -1.129525,1.045856 -2.607669,1.045856 -0.976132,0 -1.840707,-0.362563 -0.864575,-0.376509 -1.519978,-1.045857 -0.6414588,-0.669348 -1.0179671,-1.603646 -0.3765083,-0.948244 -0.3765083,-2.077769 0,-1.017966 0.3765083,-1.924375 0.3765083,-0.906409 1.0319121,-1.575757 0.669348,-0.669349 1.575757,-1.059802 0.906409,-0.390453 1.952265,-0.390453 1.380531,0 2.412442,0.58568 1.031912,0.571735 1.547868,1.575757 l -1.70126,1.282917 q -0.334674,-0.669348 -0.976133,-1.031912 -0.627514,-0.376508 -1.366585,-0.376508 -0.571735,0 -1.045857,0.237061 -0.460177,0.223116 -0.794851,0.641459 -0.334674,0.404397 -0.515956,0.948243 -0.181281,0.543845 -0.181281,1.171359 0,0.641459 0.195226,1.185304 0.195227,0.543845 0.543845,0.948243 0.348619,0.390453 0.822741,0.613569 0.488066,0.223116 1.073746,0.223116 1.338696,0 2.412442,-1.241083 v -0.306784 h -1.924376 v -1.659426 h 3.820862 v 5.173503 h -1.896486 z"
       style="font-style:normal;font-variant:normal;font-weight:800;font-stretch:normal;font-size:medium;line-height:1.25;font-family:Raleway;-inkscape-font-specification:'Raleway Ultra-Bold';letter-spacing:0px;word-spacing:0px;fill:#000000;fill-opacity:1;stroke:none;stroke-width:0.34861881"
       id="path178"
       inkscape:connector-curvature="0" />
    <path
       d="m 23.165951,-15.236037 q 0,-0.892464 0.334674,-1.770984 0.334674,-0.892464 0.976133,-1.589702 0.641459,-0.697237 1.561812,-1.129525 0.920354,-0.432287 2.091713,-0.432287 1.394476,0 2.412443,0.599624 1.031911,0.599625 1.533922,1.561813 l -1.757039,1.227138 q -0.167337,-0.390453 -0.432287,-0.641459 -0.251005,-0.26495 -0.55779,-0.418342 -0.306785,-0.167337 -0.627514,-0.223116 -0.320729,-0.06972 -0.627514,-0.06972 -0.655403,0 -1.143469,0.26495 -0.488067,0.264951 -0.808796,0.683293 -0.320729,0.418343 -0.474122,0.948243 -0.153392,0.529901 -0.153392,1.073746 0,0.58568 0.181282,1.129525 0.181282,0.543846 0.515956,0.962188 0.348618,0.418343 0.82274,0.669348 0.488066,0.237061 1.087691,0.237061 0.306784,0 0.627514,-0.06972 0.334674,-0.08367 0.627514,-0.23706 0.306784,-0.167338 0.55779,-0.418343 0.251005,-0.26495 0.404397,-0.641459 l 1.868597,1.101636 q -0.223116,0.543845 -0.669348,0.976132 -0.432287,0.432288 -1.004022,0.725128 -0.571735,0.292839 -1.213193,0.446232 -0.641459,0.153392 -1.255028,0.153392 -1.073746,0 -1.980155,-0.432287 -0.892464,-0.446232 -1.547868,-1.17136 -0.641458,-0.725127 -1.004022,-1.64548 -0.348619,-0.920354 -0.348619,-1.868597 z"
       style="font-style:normal;font-variant:normal;font-weight:800;font-stretch:normal;font-size:medium;line-height:1.25;font-family:Raleway;-inkscape-font-specification:'Raleway Ultra-Bold';letter-spacing:0px;word-spacing:0px;fill:#000000;fill-opacity:1;stroke:none;stroke-width:0.34861881"
       id="path182"
       inkscape:connector-curvature="0" />
  </g>
</svg>
